{
  "newQuery" : {
    "name" : "newQuery",
    "description" : "efffffffffffffffffff",
    "version" : "V2",
    "queryString" : "select * from QUOTES",
    "countQueryString" : "select count(*) from (select * from QUOTES) wmTempTable",
    "nativeSql" : true,
    "fetchCount" : true,
    "type" : "SELECT",
    "parameters" : [ ],
    "request" : {
      "wrapped" : false,
      "typeRef" : null,
      "method" : "GET"
    },
    "identifiers" : [ ],
    "response" : {
      "typeRef" : "com.faturacaomodelo.salesdb.models.query.NewQueryResponse",
      "returns" : "CUSTOM",
      "responseType" : "PAGINATED",
      "properties" : [ {
        "name" : "ID",
        "fieldName" : "id",
        "optional" : false,
        "fieldType" : {
          "type" : "PRIMITIVE",
          "typeRef" : "java.math.BigInteger",
          "list" : false
        }
      }, {
        "name" : "LEAD_ID",
        "fieldName" : "leadId",
        "optional" : false,
        "fieldType" : {
          "type" : "PRIMITIVE",
          "typeRef" : "java.math.BigInteger",
          "list" : false
        }
      }, {
        "name" : "ENTRY_DATE",
        "fieldName" : "entryDate",
        "optional" : false,
        "fieldType" : {
          "type" : "PRIMITIVE",
          "typeRef" : "java.sql.Date",
          "list" : false
        }
      }, {
        "name" : "REP_ID",
        "fieldName" : "repId",
        "optional" : false,
        "fieldType" : {
          "type" : "PRIMITIVE",
          "typeRef" : "java.math.BigInteger",
          "list" : false
        }
      }, {
        "name" : "ESTIMATED_SALE",
        "fieldName" : "estimatedSale",
        "optional" : false,
        "fieldType" : {
          "type" : "PRIMITIVE",
          "typeRef" : "java.math.BigInteger",
          "list" : false
        }
      } ]
    }
  }
}