{
  "newQuery" : {
    "name" : "newQuery",
    "description" : "sd",
    "version" : "V2",
    "queryString" : "select * from \"all types\"",
    "countQueryString" : "select count(*) from (select * from \"all types\") wmTempTable",
    "nativeSql" : true,
    "fetchCount" : true,
    "type" : "SELECT",
    "parameters" : [ ],
    "request" : {
      "wrapped" : false,
      "typeRef" : null,
      "method" : "GET"
    },
    "identifiers" : [ "id" ],
    "response" : {
      "typeRef" : "com.faturacaomodelo.viewsdb.models.query.NewQueryResponse",
      "returns" : "CUSTOM",
      "responseType" : "PAGINATED",
      "properties" : [ {
        "name" : "id",
        "fieldName" : "id",
        "optional" : false,
        "fieldType" : {
          "type" : "PRIMITIVE",
          "typeRef" : "java.lang.Integer",
          "list" : false
        }
      }, {
        "name" : "Clob Column",
        "fieldName" : "clobColumn",
        "optional" : false,
        "fieldType" : {
          "type" : "PRIMITIVE",
          "typeRef" : "java.lang.String",
          "list" : false
        }
      }, {
        "name" : "Boolean Column",
        "fieldName" : "booleanColumn",
        "optional" : false,
        "fieldType" : {
          "type" : "PRIMITIVE",
          "typeRef" : "java.lang.Boolean",
          "list" : false
        }
      }, {
        "name" : "Text Column",
        "fieldName" : "textColumn",
        "optional" : false,
        "fieldType" : {
          "type" : "PRIMITIVE",
          "typeRef" : "java.lang.String",
          "list" : false
        }
      }, {
        "name" : "Integer Column",
        "fieldName" : "integerColumn",
        "optional" : false,
        "fieldType" : {
          "type" : "PRIMITIVE",
          "typeRef" : "java.lang.Integer",
          "list" : false
        }
      }, {
        "name" : "Short Column",
        "fieldName" : "shortColumn",
        "optional" : false,
        "fieldType" : {
          "type" : "PRIMITIVE",
          "typeRef" : "java.lang.Short",
          "list" : false
        }
      }, {
        "name" : "Long Column",
        "fieldName" : "longColumn",
        "optional" : false,
        "fieldType" : {
          "type" : "PRIMITIVE",
          "typeRef" : "java.lang.Long",
          "list" : false
        }
      }, {
        "name" : "Double Column",
        "fieldName" : "doubleColumn",
        "optional" : false,
        "fieldType" : {
          "type" : "PRIMITIVE",
          "typeRef" : "java.math.BigDecimal",
          "list" : false
        }
      }, {
        "name" : "Float Column",
        "fieldName" : "floatColumn",
        "optional" : false,
        "fieldType" : {
          "type" : "PRIMITIVE",
          "typeRef" : "java.lang.Double",
          "list" : false
        }
      }, {
        "name" : "BigInteger Column",
        "fieldName" : "bigIntegerColumn",
        "optional" : false,
        "fieldType" : {
          "type" : "PRIMITIVE",
          "typeRef" : "java.lang.Long",
          "list" : false
        }
      }, {
        "name" : "BigDecimal Column",
        "fieldName" : "bigDecimalColumn",
        "optional" : false,
        "fieldType" : {
          "type" : "PRIMITIVE",
          "typeRef" : "java.math.BigDecimal",
          "list" : false
        }
      }, {
        "name" : "String Column",
        "fieldName" : "stringColumn",
        "optional" : false,
        "fieldType" : {
          "type" : "PRIMITIVE",
          "typeRef" : "java.lang.String",
          "list" : false
        }
      }, {
        "name" : "Character Column",
        "fieldName" : "characterColumn",
        "optional" : false,
        "fieldType" : {
          "type" : "PRIMITIVE",
          "typeRef" : "java.lang.String",
          "list" : false
        }
      }, {
        "name" : "Blob Column",
        "fieldName" : "blobColumn",
        "optional" : false,
        "fieldType" : {
          "type" : "PRIMITIVE",
          "typeRef" : "byte[]",
          "list" : false
        }
      }, {
        "name" : "Date Column",
        "fieldName" : "dateColumn",
        "optional" : false,
        "fieldType" : {
          "type" : "PRIMITIVE",
          "typeRef" : "java.sql.Date",
          "list" : false
        }
      }, {
        "name" : "Date_datetime Column",
        "fieldName" : "dateDatetimeColumn",
        "optional" : false,
        "fieldType" : {
          "type" : "PRIMITIVE",
          "typeRef" : "java.sql.Date",
          "list" : false
        }
      }, {
        "name" : "Date_Timestamp Column",
        "fieldName" : "dateTimestampColumn",
        "optional" : false,
        "fieldType" : {
          "type" : "PRIMITIVE",
          "typeRef" : "java.sql.Date",
          "list" : false
        }
      }, {
        "name" : "Time Column",
        "fieldName" : "timeColumn",
        "optional" : false,
        "fieldType" : {
          "type" : "PRIMITIVE",
          "typeRef" : "java.sql.Time",
          "list" : false
        }
      }, {
        "name" : "Timestamp Column",
        "fieldName" : "timestampColumn",
        "optional" : false,
        "fieldType" : {
          "type" : "PRIMITIVE",
          "typeRef" : "java.sql.Timestamp",
          "list" : false
        }
      }, {
        "name" : "Datetime Column",
        "fieldName" : "datetimeColumn",
        "optional" : false,
        "fieldType" : {
          "type" : "PRIMITIVE",
          "typeRef" : "java.sql.Timestamp",
          "list" : false
        }
      }, {
        "name" : "Byte Column",
        "fieldName" : "byteColumn",
        "optional" : false,
        "fieldType" : {
          "type" : "PRIMITIVE",
          "typeRef" : "java.lang.Short",
          "list" : false
        }
      }, {
        "name" : "Datetime_Timestamp Column",
        "fieldName" : "datetimeTimestampColumn",
        "optional" : false,
        "fieldType" : {
          "type" : "PRIMITIVE",
          "typeRef" : "java.sql.Timestamp",
          "list" : false
        }
      }, {
        "name" : "Timestamp_Datetime Column",
        "fieldName" : "timestampDatetimeColumn",
        "optional" : false,
        "fieldType" : {
          "type" : "PRIMITIVE",
          "typeRef" : "java.sql.Timestamp",
          "list" : false
        }
      } ]
    }
  }
}