{
  "description" : null,
  "draft" : false,
  "name" : "viewsdb",
  "packageName" : "com.faturacaomodelo.viewsdb",
  "tables" : [ {
    "catalog" : "viewsdb",
    "columns" : [ {
      "columnValue" : {
        "insertable" : true,
        "updatable" : true,
        "defaultValue" : null,
        "type" : "user-defined"
      },
      "constraintList" : null,
      "fieldName" : "id",
      "foreignKey" : false,
      "generatorType" : "identity",
      "generatorValue" : "\"all types_id_seq\"",
      "javaType" : "integer",
      "length" : 0,
      "name" : "id",
      "nullable" : false,
      "oldName" : "id",
      "partOfAnyRelation" : false,
      "partOfForeignKey" : false,
      "partOfPrimaryKey" : true,
      "partOfUniqueKey" : true,
      "precision" : 10,
      "primaryKey" : true,
      "scale" : 0,
      "sequenceSchema" : "public",
      "sqlType" : "number",
      "unique" : true
    }, {
      "columnValue" : {
        "insertable" : true,
        "updatable" : true,
        "defaultValue" : null,
        "type" : "user-defined"
      },
      "constraintList" : null,
      "fieldName" : "clobColumn",
      "foreignKey" : false,
      "generatorType" : "assigned",
      "generatorValue" : null,
      "javaType" : "text",
      "length" : 2147483647,
      "name" : "Clob Column",
      "nullable" : true,
      "oldName" : "Clob Column",
      "partOfAnyRelation" : false,
      "partOfForeignKey" : false,
      "partOfPrimaryKey" : false,
      "partOfUniqueKey" : false,
      "precision" : 0,
      "primaryKey" : false,
      "scale" : 0,
      "sequenceSchema" : null,
      "sqlType" : "string",
      "unique" : false
    }, {
      "columnValue" : {
        "insertable" : true,
        "updatable" : true,
        "defaultValue" : "true",
        "type" : "user-defined"
      },
      "constraintList" : null,
      "fieldName" : "booleanColumn",
      "foreignKey" : false,
      "generatorType" : "assigned",
      "generatorValue" : null,
      "javaType" : "boolean",
      "length" : 0,
      "name" : "Boolean Column",
      "nullable" : true,
      "oldName" : "Boolean Column",
      "partOfAnyRelation" : false,
      "partOfForeignKey" : false,
      "partOfPrimaryKey" : false,
      "partOfUniqueKey" : false,
      "precision" : 0,
      "primaryKey" : false,
      "scale" : 0,
      "sequenceSchema" : null,
      "sqlType" : "boolean",
      "unique" : false
    }, {
      "columnValue" : {
        "insertable" : true,
        "updatable" : true,
        "defaultValue" : null,
        "type" : "user-defined"
      },
      "constraintList" : null,
      "fieldName" : "textColumn",
      "foreignKey" : false,
      "generatorType" : "assigned",
      "generatorValue" : null,
      "javaType" : "text",
      "length" : 2059,
      "name" : "Text Column",
      "nullable" : true,
      "oldName" : "Text Column",
      "partOfAnyRelation" : false,
      "partOfForeignKey" : false,
      "partOfPrimaryKey" : false,
      "partOfUniqueKey" : false,
      "precision" : 0,
      "primaryKey" : false,
      "scale" : 0,
      "sequenceSchema" : null,
      "sqlType" : "string",
      "unique" : false
    }, {
      "columnValue" : {
        "insertable" : true,
        "updatable" : true,
        "defaultValue" : "23123",
        "type" : "user-defined"
      },
      "constraintList" : null,
      "fieldName" : "integerColumn",
      "foreignKey" : false,
      "generatorType" : "assigned",
      "generatorValue" : null,
      "javaType" : "integer",
      "length" : 0,
      "name" : "Integer Column",
      "nullable" : true,
      "oldName" : "Integer Column",
      "partOfAnyRelation" : false,
      "partOfForeignKey" : false,
      "partOfPrimaryKey" : false,
      "partOfUniqueKey" : false,
      "precision" : 10,
      "primaryKey" : false,
      "scale" : 0,
      "sequenceSchema" : null,
      "sqlType" : "number",
      "unique" : false
    }, {
      "columnValue" : {
        "insertable" : true,
        "updatable" : true,
        "defaultValue" : "145",
        "type" : "user-defined"
      },
      "constraintList" : null,
      "fieldName" : "shortColumn",
      "foreignKey" : false,
      "generatorType" : "assigned",
      "generatorValue" : null,
      "javaType" : "short",
      "length" : 0,
      "name" : "Short Column",
      "nullable" : true,
      "oldName" : "Short Column",
      "partOfAnyRelation" : false,
      "partOfForeignKey" : false,
      "partOfPrimaryKey" : false,
      "partOfUniqueKey" : false,
      "precision" : 5,
      "primaryKey" : false,
      "scale" : 0,
      "sequenceSchema" : null,
      "sqlType" : "number",
      "unique" : false
    }, {
      "columnValue" : {
        "insertable" : true,
        "updatable" : true,
        "defaultValue" : "1234567897865",
        "type" : "user-defined"
      },
      "constraintList" : null,
      "fieldName" : "longColumn",
      "foreignKey" : false,
      "generatorType" : "assigned",
      "generatorValue" : null,
      "javaType" : "long",
      "length" : 0,
      "name" : "Long Column",
      "nullable" : true,
      "oldName" : "Long Column",
      "partOfAnyRelation" : false,
      "partOfForeignKey" : false,
      "partOfPrimaryKey" : false,
      "partOfUniqueKey" : false,
      "precision" : 19,
      "primaryKey" : false,
      "scale" : 0,
      "sequenceSchema" : null,
      "sqlType" : "number",
      "unique" : false
    }, {
      "columnValue" : {
        "insertable" : true,
        "updatable" : true,
        "defaultValue" : "1234.988",
        "type" : "user-defined"
      },
      "constraintList" : null,
      "fieldName" : "doubleColumn",
      "foreignKey" : false,
      "generatorType" : "assigned",
      "generatorValue" : null,
      "javaType" : "big_decimal",
      "length" : 0,
      "name" : "Double Column",
      "nullable" : true,
      "oldName" : "Double Column",
      "partOfAnyRelation" : false,
      "partOfForeignKey" : false,
      "partOfPrimaryKey" : false,
      "partOfUniqueKey" : false,
      "precision" : 16,
      "primaryKey" : false,
      "scale" : 8,
      "sequenceSchema" : null,
      "sqlType" : "number",
      "unique" : false
    }, {
      "columnValue" : {
        "insertable" : true,
        "updatable" : true,
        "defaultValue" : "122.77",
        "type" : "user-defined"
      },
      "constraintList" : null,
      "fieldName" : "floatColumn",
      "foreignKey" : false,
      "generatorType" : "assigned",
      "generatorValue" : null,
      "javaType" : "double",
      "length" : 0,
      "name" : "Float Column",
      "nullable" : true,
      "oldName" : "Float Column",
      "partOfAnyRelation" : false,
      "partOfForeignKey" : false,
      "partOfPrimaryKey" : false,
      "partOfUniqueKey" : false,
      "precision" : 10,
      "primaryKey" : false,
      "scale" : 5,
      "sequenceSchema" : null,
      "sqlType" : "number",
      "unique" : false
    }, {
      "columnValue" : {
        "insertable" : true,
        "updatable" : true,
        "defaultValue" : "12345678909876",
        "type" : "user-defined"
      },
      "constraintList" : null,
      "fieldName" : "bigIntegerColumn",
      "foreignKey" : false,
      "generatorType" : "assigned",
      "generatorValue" : null,
      "javaType" : "long",
      "length" : 0,
      "name" : "BigInteger Column",
      "nullable" : true,
      "oldName" : "BigInteger Column",
      "partOfAnyRelation" : false,
      "partOfForeignKey" : false,
      "partOfPrimaryKey" : false,
      "partOfUniqueKey" : false,
      "precision" : 19,
      "primaryKey" : false,
      "scale" : 0,
      "sequenceSchema" : null,
      "sqlType" : "number",
      "unique" : false
    }, {
      "columnValue" : {
        "insertable" : true,
        "updatable" : true,
        "defaultValue" : "123",
        "type" : "user-defined"
      },
      "constraintList" : null,
      "fieldName" : "bigDecimalColumn",
      "foreignKey" : false,
      "generatorType" : "assigned",
      "generatorValue" : null,
      "javaType" : "big_decimal",
      "length" : 0,
      "name" : "BigDecimal Column",
      "nullable" : true,
      "oldName" : "BigDecimal Column",
      "partOfAnyRelation" : false,
      "partOfForeignKey" : false,
      "partOfPrimaryKey" : false,
      "partOfUniqueKey" : false,
      "precision" : 34,
      "primaryKey" : false,
      "scale" : 17,
      "sequenceSchema" : null,
      "sqlType" : "number",
      "unique" : false
    }, {
      "columnValue" : {
        "insertable" : true,
        "updatable" : true,
        "defaultValue" : "test",
        "type" : "user-defined"
      },
      "constraintList" : null,
      "fieldName" : "stringColumn",
      "foreignKey" : false,
      "generatorType" : "assigned",
      "generatorValue" : null,
      "javaType" : "string",
      "length" : 20,
      "name" : "String Column",
      "nullable" : true,
      "oldName" : "String Column",
      "partOfAnyRelation" : false,
      "partOfForeignKey" : false,
      "partOfPrimaryKey" : false,
      "partOfUniqueKey" : false,
      "precision" : 0,
      "primaryKey" : false,
      "scale" : 0,
      "sequenceSchema" : null,
      "sqlType" : "string",
      "unique" : false
    }, {
      "columnValue" : {
        "insertable" : true,
        "updatable" : true,
        "defaultValue" : "@",
        "type" : "user-defined"
      },
      "constraintList" : null,
      "fieldName" : "characterColumn",
      "foreignKey" : false,
      "generatorType" : "assigned",
      "generatorValue" : null,
      "javaType" : "string",
      "length" : 1,
      "name" : "Character Column",
      "nullable" : true,
      "oldName" : "Character Column",
      "partOfAnyRelation" : false,
      "partOfForeignKey" : false,
      "partOfPrimaryKey" : false,
      "partOfUniqueKey" : false,
      "precision" : 0,
      "primaryKey" : false,
      "scale" : 0,
      "sequenceSchema" : null,
      "sqlType" : "string",
      "unique" : false
    }, {
      "columnValue" : {
        "insertable" : true,
        "updatable" : true,
        "defaultValue" : null,
        "type" : "user-defined"
      },
      "constraintList" : null,
      "fieldName" : "blobColumn",
      "foreignKey" : false,
      "generatorType" : "assigned",
      "generatorValue" : null,
      "javaType" : "blob",
      "length" : 0,
      "name" : "Blob Column",
      "nullable" : true,
      "oldName" : "Blob Column",
      "partOfAnyRelation" : false,
      "partOfForeignKey" : false,
      "partOfPrimaryKey" : false,
      "partOfUniqueKey" : false,
      "precision" : 0,
      "primaryKey" : false,
      "scale" : 0,
      "sequenceSchema" : null,
      "sqlType" : "blob",
      "unique" : false
    }, {
      "columnValue" : {
        "insertable" : true,
        "updatable" : true,
        "defaultValue" : null,
        "type" : "user-defined"
      },
      "constraintList" : null,
      "fieldName" : "dateColumn",
      "foreignKey" : false,
      "generatorType" : "assigned",
      "generatorValue" : null,
      "javaType" : "date",
      "length" : 0,
      "name" : "Date Column",
      "nullable" : true,
      "oldName" : "Date Column",
      "partOfAnyRelation" : false,
      "partOfForeignKey" : false,
      "partOfPrimaryKey" : false,
      "partOfUniqueKey" : false,
      "precision" : 0,
      "primaryKey" : false,
      "scale" : 0,
      "sequenceSchema" : null,
      "sqlType" : "date",
      "unique" : false
    }, {
      "columnValue" : {
        "insertable" : true,
        "updatable" : true,
        "defaultValue" : null,
        "type" : "user-defined"
      },
      "constraintList" : null,
      "fieldName" : "dateDatetimeColumn",
      "foreignKey" : false,
      "generatorType" : "assigned",
      "generatorValue" : null,
      "javaType" : "date",
      "length" : 0,
      "name" : "Date_datetime Column",
      "nullable" : true,
      "oldName" : "Date_datetime Column",
      "partOfAnyRelation" : false,
      "partOfForeignKey" : false,
      "partOfPrimaryKey" : false,
      "partOfUniqueKey" : false,
      "precision" : 0,
      "primaryKey" : false,
      "scale" : 0,
      "sequenceSchema" : null,
      "sqlType" : "date",
      "unique" : false
    }, {
      "columnValue" : {
        "insertable" : true,
        "updatable" : true,
        "defaultValue" : null,
        "type" : "user-defined"
      },
      "constraintList" : null,
      "fieldName" : "dateTimestampColumn",
      "foreignKey" : false,
      "generatorType" : "assigned",
      "generatorValue" : null,
      "javaType" : "date",
      "length" : 0,
      "name" : "Date_Timestamp Column",
      "nullable" : true,
      "oldName" : "Date_Timestamp Column",
      "partOfAnyRelation" : false,
      "partOfForeignKey" : false,
      "partOfPrimaryKey" : false,
      "partOfUniqueKey" : false,
      "precision" : 0,
      "primaryKey" : false,
      "scale" : 0,
      "sequenceSchema" : null,
      "sqlType" : "date",
      "unique" : false
    }, {
      "columnValue" : {
        "insertable" : true,
        "updatable" : true,
        "defaultValue" : null,
        "type" : "user-defined"
      },
      "constraintList" : null,
      "fieldName" : "timeColumn",
      "foreignKey" : false,
      "generatorType" : "assigned",
      "generatorValue" : null,
      "javaType" : "time",
      "length" : 0,
      "name" : "Time Column",
      "nullable" : true,
      "oldName" : "Time Column",
      "partOfAnyRelation" : false,
      "partOfForeignKey" : false,
      "partOfPrimaryKey" : false,
      "partOfUniqueKey" : false,
      "precision" : 0,
      "primaryKey" : false,
      "scale" : 0,
      "sequenceSchema" : null,
      "sqlType" : "time",
      "unique" : false
    }, {
      "columnValue" : {
        "insertable" : true,
        "updatable" : true,
        "defaultValue" : null,
        "type" : "user-defined"
      },
      "constraintList" : null,
      "fieldName" : "timestampColumn",
      "foreignKey" : false,
      "generatorType" : "assigned",
      "generatorValue" : null,
      "javaType" : "timestamp",
      "length" : 0,
      "name" : "Timestamp Column",
      "nullable" : true,
      "oldName" : "Timestamp Column",
      "partOfAnyRelation" : false,
      "partOfForeignKey" : false,
      "partOfPrimaryKey" : false,
      "partOfUniqueKey" : false,
      "precision" : 0,
      "primaryKey" : false,
      "scale" : 0,
      "sequenceSchema" : null,
      "sqlType" : "timestamp",
      "unique" : false
    }, {
      "columnValue" : {
        "insertable" : true,
        "updatable" : true,
        "defaultValue" : null,
        "type" : "user-defined"
      },
      "constraintList" : null,
      "fieldName" : "datetimeColumn",
      "foreignKey" : false,
      "generatorType" : "assigned",
      "generatorValue" : null,
      "javaType" : "datetime",
      "length" : 0,
      "name" : "Datetime Column",
      "nullable" : true,
      "oldName" : "Datetime Column",
      "partOfAnyRelation" : false,
      "partOfForeignKey" : false,
      "partOfPrimaryKey" : false,
      "partOfUniqueKey" : false,
      "precision" : 0,
      "primaryKey" : false,
      "scale" : 0,
      "sequenceSchema" : null,
      "sqlType" : "datetime",
      "unique" : false
    }, {
      "columnValue" : {
        "insertable" : true,
        "updatable" : true,
        "defaultValue" : "12",
        "type" : "user-defined"
      },
      "constraintList" : null,
      "fieldName" : "byteColumn",
      "foreignKey" : false,
      "generatorType" : "assigned",
      "generatorValue" : null,
      "javaType" : "short",
      "length" : 0,
      "name" : "Byte Column",
      "nullable" : true,
      "oldName" : "Byte Column",
      "partOfAnyRelation" : false,
      "partOfForeignKey" : false,
      "partOfPrimaryKey" : false,
      "partOfUniqueKey" : false,
      "precision" : 5,
      "primaryKey" : false,
      "scale" : 0,
      "sequenceSchema" : null,
      "sqlType" : "number",
      "unique" : false
    }, {
      "columnValue" : {
        "insertable" : true,
        "updatable" : true,
        "defaultValue" : null,
        "type" : "user-defined"
      },
      "constraintList" : null,
      "fieldName" : "datetimeTimestampColumn",
      "foreignKey" : false,
      "generatorType" : "assigned",
      "generatorValue" : null,
      "javaType" : "datetime",
      "length" : 0,
      "name" : "Datetime_Timestamp Column",
      "nullable" : true,
      "oldName" : "Datetime_Timestamp Column",
      "partOfAnyRelation" : false,
      "partOfForeignKey" : false,
      "partOfPrimaryKey" : false,
      "partOfUniqueKey" : false,
      "precision" : 0,
      "primaryKey" : false,
      "scale" : 0,
      "sequenceSchema" : null,
      "sqlType" : "datetime",
      "unique" : false
    }, {
      "columnValue" : {
        "insertable" : true,
        "updatable" : true,
        "defaultValue" : null,
        "type" : "user-defined"
      },
      "constraintList" : null,
      "fieldName" : "timestampDatetimeColumn",
      "foreignKey" : false,
      "generatorType" : "assigned",
      "generatorValue" : null,
      "javaType" : "timestamp",
      "length" : 0,
      "name" : "Timestamp_Datetime Column",
      "nullable" : true,
      "oldName" : "Timestamp_Datetime Column",
      "partOfAnyRelation" : false,
      "partOfForeignKey" : false,
      "partOfPrimaryKey" : false,
      "partOfUniqueKey" : false,
      "precision" : 0,
      "primaryKey" : false,
      "scale" : 0,
      "sequenceSchema" : null,
      "sqlType" : "timestamp",
      "unique" : false
    } ],
    "constraints" : [ ],
    "entityName" : "AllTypes",
    "fullyQualifiedName" : "com.faturacaomodelo.viewsdb.AllTypes",
    "name" : "all types",
    "oldName" : "all types",
    "primaryKey" : {
      "columns" : [ "id" ],
      "composite" : false,
      "generator" : {
        "generatorType" : "identity",
        "generatorValue" : "\"all types_id_seq\"",
        "schemaName" : "public"
      },
      "name" : "all types_pkey",
      "virtual" : false
    },
    "relations" : [ ],
    "schema" : "public",
    "type" : "TABLE"
  }, {
    "catalog" : "viewsdb",
    "columns" : [ {
      "columnValue" : {
        "insertable" : true,
        "updatable" : true,
        "defaultValue" : null,
        "type" : "user-defined"
      },
      "constraintList" : null,
      "fieldName" : "id",
      "foreignKey" : false,
      "generatorType" : "identity",
      "generatorValue" : "\"alltypes table_Id column_seq\"",
      "javaType" : "integer",
      "length" : 0,
      "name" : "Id",
      "nullable" : false,
      "oldName" : "Id",
      "partOfAnyRelation" : false,
      "partOfForeignKey" : false,
      "partOfPrimaryKey" : true,
      "partOfUniqueKey" : true,
      "precision" : 10,
      "primaryKey" : true,
      "scale" : 0,
      "sequenceSchema" : "public",
      "sqlType" : "number",
      "unique" : true
    }, {
      "columnValue" : {
        "insertable" : true,
        "updatable" : true,
        "defaultValue" : "1123",
        "type" : "user-defined"
      },
      "constraintList" : null,
      "fieldName" : "intCol",
      "foreignKey" : false,
      "generatorType" : "assigned",
      "generatorValue" : null,
      "javaType" : "integer",
      "length" : 0,
      "name" : "Int col",
      "nullable" : true,
      "oldName" : "Int col",
      "partOfAnyRelation" : false,
      "partOfForeignKey" : false,
      "partOfPrimaryKey" : false,
      "partOfUniqueKey" : false,
      "precision" : 10,
      "primaryKey" : false,
      "scale" : 0,
      "sequenceSchema" : null,
      "sqlType" : "number",
      "unique" : false
    }, {
      "columnValue" : {
        "insertable" : true,
        "updatable" : true,
        "defaultValue" : "12313",
        "type" : "user-defined"
      },
      "constraintList" : null,
      "fieldName" : "shortCol",
      "foreignKey" : false,
      "generatorType" : "assigned",
      "generatorValue" : null,
      "javaType" : "short",
      "length" : 0,
      "name" : "Short col",
      "nullable" : true,
      "oldName" : "Short col",
      "partOfAnyRelation" : false,
      "partOfForeignKey" : false,
      "partOfPrimaryKey" : false,
      "partOfUniqueKey" : false,
      "precision" : 5,
      "primaryKey" : false,
      "scale" : 0,
      "sequenceSchema" : null,
      "sqlType" : "number",
      "unique" : false
    }, {
      "columnValue" : {
        "insertable" : true,
        "updatable" : true,
        "defaultValue" : null,
        "type" : "user-defined"
      },
      "constraintList" : null,
      "fieldName" : "doubleCol",
      "foreignKey" : false,
      "generatorType" : "assigned",
      "generatorValue" : null,
      "javaType" : "big_decimal",
      "length" : 0,
      "name" : "Double col",
      "nullable" : true,
      "oldName" : "Double col",
      "partOfAnyRelation" : false,
      "partOfForeignKey" : false,
      "partOfPrimaryKey" : false,
      "partOfUniqueKey" : false,
      "precision" : 17,
      "primaryKey" : false,
      "scale" : 17,
      "sequenceSchema" : null,
      "sqlType" : "number",
      "unique" : false
    }, {
      "columnValue" : {
        "insertable" : true,
        "updatable" : true,
        "defaultValue" : null,
        "type" : "user-defined"
      },
      "constraintList" : null,
      "fieldName" : "bigintCol",
      "foreignKey" : false,
      "generatorType" : "assigned",
      "generatorValue" : null,
      "javaType" : "long",
      "length" : 0,
      "name" : "Bigint Col",
      "nullable" : true,
      "oldName" : "Bigint Col",
      "partOfAnyRelation" : false,
      "partOfForeignKey" : false,
      "partOfPrimaryKey" : false,
      "partOfUniqueKey" : false,
      "precision" : 19,
      "primaryKey" : false,
      "scale" : 0,
      "sequenceSchema" : null,
      "sqlType" : "number",
      "unique" : false
    }, {
      "columnValue" : {
        "insertable" : true,
        "updatable" : true,
        "defaultValue" : null,
        "type" : "user-defined"
      },
      "constraintList" : null,
      "fieldName" : "bigdecCol",
      "foreignKey" : false,
      "generatorType" : "assigned",
      "generatorValue" : null,
      "javaType" : "big_decimal",
      "length" : 0,
      "name" : "Bigdec col",
      "nullable" : true,
      "oldName" : "Bigdec col",
      "partOfAnyRelation" : false,
      "partOfForeignKey" : false,
      "partOfPrimaryKey" : false,
      "partOfUniqueKey" : false,
      "precision" : 32,
      "primaryKey" : false,
      "scale" : 18,
      "sequenceSchema" : null,
      "sqlType" : "number",
      "unique" : false
    }, {
      "columnValue" : {
        "insertable" : true,
        "updatable" : true,
        "defaultValue" : null,
        "type" : "user-defined"
      },
      "constraintList" : null,
      "fieldName" : "stringCol",
      "foreignKey" : false,
      "generatorType" : "assigned",
      "generatorValue" : null,
      "javaType" : "string",
      "length" : 37,
      "name" : "String Col",
      "nullable" : true,
      "oldName" : "String Col",
      "partOfAnyRelation" : false,
      "partOfForeignKey" : false,
      "partOfPrimaryKey" : false,
      "partOfUniqueKey" : false,
      "precision" : 0,
      "primaryKey" : false,
      "scale" : 0,
      "sequenceSchema" : null,
      "sqlType" : "string",
      "unique" : false
    }, {
      "columnValue" : {
        "insertable" : true,
        "updatable" : true,
        "defaultValue" : null,
        "type" : "user-defined"
      },
      "constraintList" : null,
      "fieldName" : "charCol",
      "foreignKey" : false,
      "generatorType" : "assigned",
      "generatorValue" : null,
      "javaType" : "string",
      "length" : 1,
      "name" : "Char col",
      "nullable" : true,
      "oldName" : "Char col",
      "partOfAnyRelation" : false,
      "partOfForeignKey" : false,
      "partOfPrimaryKey" : false,
      "partOfUniqueKey" : false,
      "precision" : 0,
      "primaryKey" : false,
      "scale" : 0,
      "sequenceSchema" : null,
      "sqlType" : "string",
      "unique" : false
    }, {
      "columnValue" : {
        "insertable" : true,
        "updatable" : true,
        "defaultValue" : null,
        "type" : "user-defined"
      },
      "constraintList" : null,
      "fieldName" : "clobCol",
      "foreignKey" : false,
      "generatorType" : "assigned",
      "generatorValue" : null,
      "javaType" : "text",
      "length" : 2456789,
      "name" : "Clob col",
      "nullable" : true,
      "oldName" : "Clob col",
      "partOfAnyRelation" : false,
      "partOfForeignKey" : false,
      "partOfPrimaryKey" : false,
      "partOfUniqueKey" : false,
      "precision" : 0,
      "primaryKey" : false,
      "scale" : 0,
      "sequenceSchema" : null,
      "sqlType" : "string",
      "unique" : false
    }, {
      "columnValue" : {
        "insertable" : true,
        "updatable" : true,
        "defaultValue" : null,
        "type" : "user-defined"
      },
      "constraintList" : null,
      "fieldName" : "dateCol",
      "foreignKey" : false,
      "generatorType" : "assigned",
      "generatorValue" : null,
      "javaType" : "date",
      "length" : 0,
      "name" : "Date Col",
      "nullable" : true,
      "oldName" : "Date Col",
      "partOfAnyRelation" : false,
      "partOfForeignKey" : false,
      "partOfPrimaryKey" : false,
      "partOfUniqueKey" : false,
      "precision" : 0,
      "primaryKey" : false,
      "scale" : 0,
      "sequenceSchema" : null,
      "sqlType" : "date",
      "unique" : false
    }, {
      "columnValue" : {
        "insertable" : true,
        "updatable" : true,
        "defaultValue" : null,
        "type" : "user-defined"
      },
      "constraintList" : null,
      "fieldName" : "timeCol",
      "foreignKey" : false,
      "generatorType" : "assigned",
      "generatorValue" : null,
      "javaType" : "time",
      "length" : 0,
      "name" : "Time col",
      "nullable" : true,
      "oldName" : "Time col",
      "partOfAnyRelation" : false,
      "partOfForeignKey" : false,
      "partOfPrimaryKey" : false,
      "partOfUniqueKey" : false,
      "precision" : 0,
      "primaryKey" : false,
      "scale" : 0,
      "sequenceSchema" : null,
      "sqlType" : "time",
      "unique" : false
    }, {
      "columnValue" : {
        "insertable" : true,
        "updatable" : true,
        "defaultValue" : null,
        "type" : "user-defined"
      },
      "constraintList" : null,
      "fieldName" : "datetimeCol",
      "foreignKey" : false,
      "generatorType" : "assigned",
      "generatorValue" : null,
      "javaType" : "datetime",
      "length" : 0,
      "name" : "Datetime col",
      "nullable" : true,
      "oldName" : "Datetime col",
      "partOfAnyRelation" : false,
      "partOfForeignKey" : false,
      "partOfPrimaryKey" : false,
      "partOfUniqueKey" : false,
      "precision" : 0,
      "primaryKey" : false,
      "scale" : 0,
      "sequenceSchema" : null,
      "sqlType" : "datetime",
      "unique" : false
    }, {
      "columnValue" : {
        "insertable" : true,
        "updatable" : true,
        "defaultValue" : null,
        "type" : "user-defined"
      },
      "constraintList" : null,
      "fieldName" : "timestampCol",
      "foreignKey" : false,
      "generatorType" : "assigned",
      "generatorValue" : null,
      "javaType" : "timestamp",
      "length" : 0,
      "name" : "Timestamp col",
      "nullable" : true,
      "oldName" : "Timestamp col",
      "partOfAnyRelation" : false,
      "partOfForeignKey" : false,
      "partOfPrimaryKey" : false,
      "partOfUniqueKey" : false,
      "precision" : 0,
      "primaryKey" : false,
      "scale" : 0,
      "sequenceSchema" : null,
      "sqlType" : "timestamp",
      "unique" : false
    }, {
      "columnValue" : {
        "insertable" : true,
        "updatable" : true,
        "defaultValue" : "true",
        "type" : "user-defined"
      },
      "constraintList" : null,
      "fieldName" : "booleanCol",
      "foreignKey" : false,
      "generatorType" : "assigned",
      "generatorValue" : null,
      "javaType" : "boolean",
      "length" : 0,
      "name" : "Boolean col",
      "nullable" : true,
      "oldName" : "Boolean col",
      "partOfAnyRelation" : false,
      "partOfForeignKey" : false,
      "partOfPrimaryKey" : false,
      "partOfUniqueKey" : false,
      "precision" : 0,
      "primaryKey" : false,
      "scale" : 0,
      "sequenceSchema" : null,
      "sqlType" : "boolean",
      "unique" : false
    }, {
      "columnValue" : {
        "insertable" : true,
        "updatable" : true,
        "defaultValue" : null,
        "type" : "user-defined"
      },
      "constraintList" : null,
      "fieldName" : "blobCol",
      "foreignKey" : false,
      "generatorType" : "assigned",
      "generatorValue" : null,
      "javaType" : "blob",
      "length" : 0,
      "name" : "Blob col",
      "nullable" : true,
      "oldName" : "Blob col",
      "partOfAnyRelation" : false,
      "partOfForeignKey" : false,
      "partOfPrimaryKey" : false,
      "partOfUniqueKey" : false,
      "precision" : 0,
      "primaryKey" : false,
      "scale" : 0,
      "sequenceSchema" : null,
      "sqlType" : "blob",
      "unique" : false
    }, {
      "columnValue" : {
        "insertable" : true,
        "updatable" : true,
        "defaultValue" : null,
        "type" : "user-defined"
      },
      "constraintList" : null,
      "fieldName" : "timeWithoutTimezone",
      "foreignKey" : false,
      "generatorType" : "assigned",
      "generatorValue" : null,
      "javaType" : "time",
      "length" : 0,
      "name" : "Time without timezone",
      "nullable" : true,
      "oldName" : "Time without timezone",
      "partOfAnyRelation" : false,
      "partOfForeignKey" : false,
      "partOfPrimaryKey" : false,
      "partOfUniqueKey" : false,
      "precision" : 0,
      "primaryKey" : false,
      "scale" : 0,
      "sequenceSchema" : null,
      "sqlType" : "time",
      "unique" : false
    }, {
      "columnValue" : {
        "insertable" : true,
        "updatable" : true,
        "defaultValue" : null,
        "type" : "user-defined"
      },
      "constraintList" : null,
      "fieldName" : "floatCol",
      "foreignKey" : false,
      "generatorType" : "assigned",
      "generatorValue" : null,
      "javaType" : "double",
      "length" : 0,
      "name" : "Float col",
      "nullable" : true,
      "oldName" : "Float col",
      "partOfAnyRelation" : false,
      "partOfForeignKey" : false,
      "partOfPrimaryKey" : false,
      "partOfUniqueKey" : false,
      "precision" : 9,
      "primaryKey" : false,
      "scale" : 4,
      "sequenceSchema" : null,
      "sqlType" : "number",
      "unique" : false
    }, {
      "columnValue" : {
        "insertable" : true,
        "updatable" : true,
        "defaultValue" : null,
        "type" : "user-defined"
      },
      "constraintList" : null,
      "fieldName" : "longCol",
      "foreignKey" : false,
      "generatorType" : "assigned",
      "generatorValue" : null,
      "javaType" : "long",
      "length" : 0,
      "name" : "Long col",
      "nullable" : true,
      "oldName" : "Long col",
      "partOfAnyRelation" : false,
      "partOfForeignKey" : false,
      "partOfPrimaryKey" : false,
      "partOfUniqueKey" : false,
      "precision" : 19,
      "primaryKey" : false,
      "scale" : 0,
      "sequenceSchema" : null,
      "sqlType" : "number",
      "unique" : false
    }, {
      "columnValue" : {
        "insertable" : true,
        "updatable" : true,
        "defaultValue" : null,
        "type" : "user-defined"
      },
      "constraintList" : null,
      "fieldName" : "numericCol",
      "foreignKey" : false,
      "generatorType" : "assigned",
      "generatorValue" : null,
      "javaType" : "big_decimal",
      "length" : 0,
      "name" : "Numeric col",
      "nullable" : true,
      "oldName" : "Numeric col",
      "partOfAnyRelation" : false,
      "partOfForeignKey" : false,
      "partOfPrimaryKey" : false,
      "partOfUniqueKey" : false,
      "precision" : 38,
      "primaryKey" : false,
      "scale" : 15,
      "sequenceSchema" : null,
      "sqlType" : "number",
      "unique" : false
    }, {
      "columnValue" : {
        "insertable" : true,
        "updatable" : true,
        "defaultValue" : null,
        "type" : "user-defined"
      },
      "constraintList" : null,
      "fieldName" : "byteCol",
      "foreignKey" : false,
      "generatorType" : "assigned",
      "generatorValue" : null,
      "javaType" : "short",
      "length" : 0,
      "name" : "Byte Col",
      "nullable" : true,
      "oldName" : "Byte Col",
      "partOfAnyRelation" : false,
      "partOfForeignKey" : false,
      "partOfPrimaryKey" : false,
      "partOfUniqueKey" : false,
      "precision" : 5,
      "primaryKey" : false,
      "scale" : 0,
      "sequenceSchema" : null,
      "sqlType" : "number",
      "unique" : false
    }, {
      "columnValue" : {
        "insertable" : true,
        "updatable" : true,
        "defaultValue" : null,
        "type" : "user-defined"
      },
      "constraintList" : null,
      "fieldName" : "textCol",
      "foreignKey" : false,
      "generatorType" : "assigned",
      "generatorValue" : null,
      "javaType" : "text",
      "length" : 2059,
      "name" : "Text Col",
      "nullable" : true,
      "oldName" : "Text Col",
      "partOfAnyRelation" : false,
      "partOfForeignKey" : false,
      "partOfPrimaryKey" : false,
      "partOfUniqueKey" : false,
      "precision" : 0,
      "primaryKey" : false,
      "scale" : 0,
      "sequenceSchema" : null,
      "sqlType" : "string",
      "unique" : false
    } ],
    "constraints" : [ ],
    "entityName" : "AlltypesTable",
    "fullyQualifiedName" : "com.faturacaomodelo.viewsdb.AlltypesTable",
    "name" : "alltypes table",
    "oldName" : "alltypes table",
    "primaryKey" : {
      "columns" : [ "Id" ],
      "composite" : false,
      "generator" : {
        "generatorType" : "identity",
        "generatorValue" : "\"alltypes table_Id column_seq\"",
        "schemaName" : "public"
      },
      "name" : "alltypes table_pkey",
      "virtual" : false
    },
    "relations" : [ ],
    "schema" : "public",
    "type" : "TABLE"
  } ]
}